%YAML 1.1
%TAG !u! tag:unity3d.com,2011:
--- !u!74 &7400000
AnimationClip:
  m_ObjectHideFlags: 0
  m_PrefabParentObject: {fileID: 0}
  m_PrefabInternal: {fileID: 0}
  m_Name: Nuvem1_Anim
  serializedVersion: 6
  m_Legacy: 0
  m_Compressed: 0
  m_UseHighQualityCurve: 1
  m_RotationCurves: []
  m_CompressedRotationCurves: []
  m_PositionCurves: []
  m_ScaleCurves: []
  m_FloatCurves:
  - curve:
      serializedVersion: 2
      m_Curve:
      - time: 0
        value: -1172.19629
        inSlope: 1.60454154
        outSlope: 1.60454154
        tangentMode: 10
      - time: 33.8333321
        value: -1117.9093
        inSlope: -.241207361
        outSlope: -.241207361
        tangentMode: 10
      - time: 68.3333359
        value: -1189.9093
        inSlope: -1.82480288
        outSlope: -1.82480288
        tangentMode: 10
      - time: 117.666664
        value: -1267
        inSlope: 1.10219288
        outSlope: 1.10219288
        tangentMode: 10
      - time: 142.833328
        value: -1172.19629
        inSlope: 3.76703525
        outSlope: 3.76703525
        tangentMode: 10
      m_PreInfinity: 2
      m_PostInfinity: 2
    attribute: m_AnchoredPosition.x
    path: 
    classID: 224
    script: {fileID: 0}
  - curve:
      serializedVersion: 2
      m_Curve:
      - time: 0
        value: -162
        inSlope: -.206896558
        outSlope: -.206896558
        tangentMode: 10
      - time: 33.8333321
        value: -169
        inSlope: -.320839554
        outSlope: -.320839554
        tangentMode: 10
      - time: 68.3333359
        value: -184
        inSlope: .0663925409
        outSlope: .0663925409
        tangentMode: 10
      - time: 117.666664
        value: -156
        inSlope: .164578512
        outSlope: .164578512
        tangentMode: 10
      - time: 142.833328
        value: -162
        inSlope: -.238410622
        outSlope: -.238410622
        tangentMode: 10
      m_PreInfinity: 2
      m_PostInfinity: 2
    attribute: m_AnchoredPosition.y
    path: 
    classID: 224
    script: {fileID: 0}
  m_PPtrCurves: []
  m_SampleRate: 6
  m_WrapMode: 0
  m_Bounds:
    m_Center: {x: 0, y: 0, z: 0}
    m_Extent: {x: 0, y: 0, z: 0}
  m_ClipBindingConstant:
    genericBindings:
    - path: 0
      attribute: 1460864421
      script: {fileID: 0}
      classID: 224
      customType: 0
      isPPtrCurve: 0
    - path: 0
      attribute: 538195251
      script: {fileID: 0}
      classID: 224
      customType: 0
      isPPtrCurve: 0
    pptrCurveMapping: []
  m_AnimationClipSettings:
    serializedVersion: 2
    m_StartTime: 0
    m_StopTime: 142.833328
    m_OrientationOffsetY: 0
    m_Level: 0
    m_CycleOffset: 0
    m_LoopTime: 1
    m_LoopBlend: 1
    m_LoopBlendOrientation: 0
    m_LoopBlendPositionY: 0
    m_LoopBlendPositionXZ: 0
    m_KeepOriginalOrientation: 0
    m_KeepOriginalPositionY: 1
    m_KeepOriginalPositionXZ: 0
    m_HeightFromFeet: 0
    m_Mirror: 0
  m_EditorCurves:
  - curve:
      serializedVersion: 2
      m_Curve:
      - time: 0
        value: -1172.19629
        inSlope: 1.60454154
        outSlope: 1.60454154
        tangentMode: 10
      - time: 33.8333321
        value: -1117.9093
        inSlope: -.241207361
        outSlope: -.241207361
        tangentMode: 10
      - time: 68.3333359
        value: -1189.9093
        inSlope: -1.82480288
        outSlope: -1.82480288
        tangentMode: 10
      - time: 117.666664
        value: -1267
        inSlope: 1.10219288
        outSlope: 1.10219288
        tangentMode: 10
      - time: 142.833328
        value: -1172.19629
        inSlope: 3.76703525
        outSlope: 3.76703525
        tangentMode: 10
      m_PreInfinity: 2
      m_PostInfinity: 2
    attribute: m_AnchoredPosition.x
    path: 
    classID: 224
    script: {fileID: 0}
  - curve:
      serializedVersion: 2
      m_Curve:
      - time: 0
        value: -162
        inSlope: -.206896558
        outSlope: -.206896558
        tangentMode: 10
      - time: 33.8333321
        value: -169
        inSlope: -.320839554
        outSlope: -.320839554
        tangentMode: 10
      - time: 68.3333359
        value: -184
        inSlope: .0663925409
        outSlope: .0663925409
        tangentMode: 10
      - time: 117.666664
        value: -156
        inSlope: .164578512
        outSlope: .164578512
        tangentMode: 10
      - time: 142.833328
        value: -162
        inSlope: -.238410622
        outSlope: -.238410622
        tangentMode: 10
      m_PreInfinity: 2
      m_PostInfinity: 2
    attribute: m_AnchoredPosition.y
    path: 
    classID: 224
    script: {fileID: 0}
  m_EulerEditorCurves: []
  m_HasGenericRootTransform: 0
  m_HasMotionFloatCurves: 0
  m_GenerateMotionCurves: 0
  m_Events: []
