%YAML 1.1
%TAG !u! tag:unity3d.com,2011:
--- !u!114 &11400000
MonoBehaviour:
  m_ObjectHideFlags: 0
  m_PrefabParentObject: {fileID: 0}
  m_PrefabInternal: {fileID: 0}
  m_GameObject: {fileID: 0}
  m_Enabled: 1
  m_EditorHideFlags: 0
  m_Script: {fileID: 575807087, guid: 533361e04fa896b4395cced4d33088c3, type: 3}
  m_Name: LightPillar
  m_EditorClassIdentifier: 
  _internalFlags: 1
  disableImmediatePreview: 0
  _previewAssetId: z_6e536773-d6cc-4ce2-a33f-d3f4a530c480
  customPreviewImage: {fileID: 0}
  customPreviewDesignTime: 1
  _static: 0
  _smooth: 0
  visibility: 1
  group: 0
  overrideLayer: 0
  layer: 0
  overrideTag: 0
  tag: Untagged
  _categoryId: 8
  forceLegacySideways: 0
  overrideTransforms: 0
  scaleMode: 0
  applyPrefabTransform: 1
  transformScale: {x: 1, y: 1, z: 1}
  _userFlags: 0
  _userFlagLabels: 
  _defaultOrientationMask: 0
  _fallbackMode: 0
  forceOverrideFlags: 0
  _orientations:
  - mask: 0
    _type: 0
    _rotation: 0
    _variations:
    - {fileID: 144638, guid: 46d1f342652eb1449a7ea91b0391d57d, type: 2}
    _variationWeights: 32000000
  _materialMappingFrom: []
  _materialMappingTo: []
  _coalesce: 0
  _coalesceWithRotated: 0
  _coalesceWithBorder: 0
  _coalesceBrushGroup: 0
  _coalesceWithBrushGroups: 
